-- Merging decision tree log ---
manifest
ADDED from /Tawatchai/Android/AndroidStudioWorkSpace/FaceReconition/face-recognition/facerecognition/src/main/AndroidManifest.xml:2:1-106:12
	package
		ADDED from /Tawatchai/Android/AndroidStudioWorkSpace/FaceReconition/face-recognition/facerecognition/src/main/AndroidManifest.xml:3:5-48
		INJECTED from /Tawatchai/Android/AndroidStudioWorkSpace/FaceReconition/face-recognition/facerecognition/src/main/AndroidManifest.xml
		INJECTED from /Tawatchai/Android/AndroidStudioWorkSpace/FaceReconition/face-recognition/facerecognition/src/main/AndroidManifest.xml
	android:versionName
		ADDED from /Tawatchai/Android/AndroidStudioWorkSpace/FaceReconition/face-recognition/facerecognition/src/main/AndroidManifest.xml:6:5-30
		INJECTED from /Tawatchai/Android/AndroidStudioWorkSpace/FaceReconition/face-recognition/facerecognition/src/main/AndroidManifest.xml
		INJECTED from /Tawatchai/Android/AndroidStudioWorkSpace/FaceReconition/face-recognition/facerecognition/src/main/AndroidManifest.xml
	android:versionCode
		ADDED from /Tawatchai/Android/AndroidStudioWorkSpace/FaceReconition/face-recognition/facerecognition/src/main/AndroidManifest.xml:5:5-29
		INJECTED from /Tawatchai/Android/AndroidStudioWorkSpace/FaceReconition/face-recognition/facerecognition/src/main/AndroidManifest.xml
		INJECTED from /Tawatchai/Android/AndroidStudioWorkSpace/FaceReconition/face-recognition/facerecognition/src/main/AndroidManifest.xml
	xmlns:android
		ADDED from /Tawatchai/Android/AndroidStudioWorkSpace/FaceReconition/face-recognition/facerecognition/src/main/AndroidManifest.xml:2:11-69
	android:installLocation
		ADDED from /Tawatchai/Android/AndroidStudioWorkSpace/FaceReconition/face-recognition/facerecognition/src/main/AndroidManifest.xml:4:5-35
uses-sdk
ADDED from /Tawatchai/Android/AndroidStudioWorkSpace/FaceReconition/face-recognition/facerecognition/src/main/AndroidManifest.xml:8:5-43
MERGED from [face-recognition:openCVLibrary2410:unspecified] /Tawatchai/Android/AndroidStudioWorkSpace/FaceReconition/face-recognition/openCVLibrary2410/build/intermediates/bundles/default/AndroidManifest.xml:7:5-9:40
MERGED from [com.android.support:design:23.2.1] /Users/tawatchaitongtea/.android/build-cache/6e0f1c55b093b535bc570358c76222bffb3373e3/output/AndroidManifest.xml:20:5-43
MERGED from [com.android.support:appcompat-v7:23.2.1] /Users/tawatchaitongtea/.android/build-cache/4888bd56c8a3f1c9bdf1725dd21f3562ec366a82/output/AndroidManifest.xml:21:5-23:78
MERGED from [com.android.support:animated-vector-drawable:23.2.1] /Users/tawatchaitongtea/.android/build-cache/ce4cef1c9ef3c4844a57c066be1da357f62f12cd/output/AndroidManifest.xml:5:5-44
MERGED from [com.android.support:support-vector-drawable:23.2.1] /Users/tawatchaitongtea/.android/build-cache/3b3a24eb874ed9e4c89fdcc7599d572ae66c0360/output/AndroidManifest.xml:5:5-43
MERGED from [com.android.support:recyclerview-v7:23.2.1] /Users/tawatchaitongtea/.android/build-cache/30fdf881ed2e8a9b6a5d865c0af5d97ccc0abf62/output/AndroidManifest.xml:20:5-43
MERGED from [com.android.support:cardview-v7:23.2.1] /Users/tawatchaitongtea/.android/build-cache/4de21783ab4d6f2973bf824d1ec92a8de0a718f1/output/AndroidManifest.xml:20:5-43
MERGED from [com.github.satyan:sugar:1.4] /Users/tawatchaitongtea/.android/build-cache/6f7e0242d1adae6f34c746c9806dec9eabee3ebd/output/AndroidManifest.xml:7:5-9:41
MERGED from [com.android.support:support-v4:23.2.1] /Users/tawatchaitongtea/.android/build-cache/6bd5f920ebbc42690dc100069a7f947150f437ea/output/AndroidManifest.xml:20:5-43
MERGED from [com.daimajia.swipelayout:library:1.2.0] /Users/tawatchaitongtea/.android/build-cache/ee5527f6813dbfb4c9b72b2f3f7ccfe75241cce5/output/AndroidManifest.xml:6:5-8:41
	tools:overrideLibrary
		ADDED from [com.android.support:appcompat-v7:23.2.1] /Users/tawatchaitongtea/.android/build-cache/4888bd56c8a3f1c9bdf1725dd21f3562ec366a82/output/AndroidManifest.xml:23:9-75
	android:targetSdkVersion
		INJECTED from /Tawatchai/Android/AndroidStudioWorkSpace/FaceReconition/face-recognition/facerecognition/src/main/AndroidManifest.xml
		INJECTED from /Tawatchai/Android/AndroidStudioWorkSpace/FaceReconition/face-recognition/facerecognition/src/main/AndroidManifest.xml
	android:minSdkVersion
		ADDED from /Tawatchai/Android/AndroidStudioWorkSpace/FaceReconition/face-recognition/facerecognition/src/main/AndroidManifest.xml:8:15-40
		INJECTED from /Tawatchai/Android/AndroidStudioWorkSpace/FaceReconition/face-recognition/facerecognition/src/main/AndroidManifest.xml
		INJECTED from /Tawatchai/Android/AndroidStudioWorkSpace/FaceReconition/face-recognition/facerecognition/src/main/AndroidManifest.xml
uses-permission#android.permission.WRITE_EXTERNAL_STORAGE
ADDED from /Tawatchai/Android/AndroidStudioWorkSpace/FaceReconition/face-recognition/facerecognition/src/main/AndroidManifest.xml:10:5-81
	android:name
		ADDED from /Tawatchai/Android/AndroidStudioWorkSpace/FaceReconition/face-recognition/facerecognition/src/main/AndroidManifest.xml:10:22-78
supports-screens
ADDED from /Tawatchai/Android/AndroidStudioWorkSpace/FaceReconition/face-recognition/facerecognition/src/main/AndroidManifest.xml:12:5-17:39
	android:largeScreens
		ADDED from /Tawatchai/Android/AndroidStudioWorkSpace/FaceReconition/face-recognition/facerecognition/src/main/AndroidManifest.xml:14:9-36
	android:smallScreens
		ADDED from /Tawatchai/Android/AndroidStudioWorkSpace/FaceReconition/face-recognition/facerecognition/src/main/AndroidManifest.xml:17:9-36
	android:normalScreens
		ADDED from /Tawatchai/Android/AndroidStudioWorkSpace/FaceReconition/face-recognition/facerecognition/src/main/AndroidManifest.xml:15:9-37
	android:resizeable
		ADDED from /Tawatchai/Android/AndroidStudioWorkSpace/FaceReconition/face-recognition/facerecognition/src/main/AndroidManifest.xml:16:9-34
	android:anyDensity
		ADDED from /Tawatchai/Android/AndroidStudioWorkSpace/FaceReconition/face-recognition/facerecognition/src/main/AndroidManifest.xml:13:9-34
uses-permission#android.permission.CAMERA
ADDED from /Tawatchai/Android/AndroidStudioWorkSpace/FaceReconition/face-recognition/facerecognition/src/main/AndroidManifest.xml:19:5-65
	android:name
		ADDED from /Tawatchai/Android/AndroidStudioWorkSpace/FaceReconition/face-recognition/facerecognition/src/main/AndroidManifest.xml:19:22-62
uses-feature#android.hardware.camera
ADDED from /Tawatchai/Android/AndroidStudioWorkSpace/FaceReconition/face-recognition/facerecognition/src/main/AndroidManifest.xml:21:5-23:36
	android:required
		ADDED from /Tawatchai/Android/AndroidStudioWorkSpace/FaceReconition/face-recognition/facerecognition/src/main/AndroidManifest.xml:23:9-33
	android:name
		ADDED from /Tawatchai/Android/AndroidStudioWorkSpace/FaceReconition/face-recognition/facerecognition/src/main/AndroidManifest.xml:22:9-47
uses-feature#android.hardware.camera.autofocus
ADDED from /Tawatchai/Android/AndroidStudioWorkSpace/FaceReconition/face-recognition/facerecognition/src/main/AndroidManifest.xml:24:5-26:36
	android:required
		ADDED from /Tawatchai/Android/AndroidStudioWorkSpace/FaceReconition/face-recognition/facerecognition/src/main/AndroidManifest.xml:26:9-33
	android:name
		ADDED from /Tawatchai/Android/AndroidStudioWorkSpace/FaceReconition/face-recognition/facerecognition/src/main/AndroidManifest.xml:25:9-57
uses-feature#android.hardware.camera.front
ADDED from /Tawatchai/Android/AndroidStudioWorkSpace/FaceReconition/face-recognition/facerecognition/src/main/AndroidManifest.xml:27:5-29:36
	android:required
		ADDED from /Tawatchai/Android/AndroidStudioWorkSpace/FaceReconition/face-recognition/facerecognition/src/main/AndroidManifest.xml:29:9-33
	android:name
		ADDED from /Tawatchai/Android/AndroidStudioWorkSpace/FaceReconition/face-recognition/facerecognition/src/main/AndroidManifest.xml:28:9-53
uses-feature#android.hardware.camera.front.autofocus
ADDED from /Tawatchai/Android/AndroidStudioWorkSpace/FaceReconition/face-recognition/facerecognition/src/main/AndroidManifest.xml:30:5-32:36
	android:required
		ADDED from /Tawatchai/Android/AndroidStudioWorkSpace/FaceReconition/face-recognition/facerecognition/src/main/AndroidManifest.xml:32:9-33
	android:name
		ADDED from /Tawatchai/Android/AndroidStudioWorkSpace/FaceReconition/face-recognition/facerecognition/src/main/AndroidManifest.xml:31:9-63
android:uses-permission#android.permission.READ_PHONE_STATE
ADDED from /Tawatchai/Android/AndroidStudioWorkSpace/FaceReconition/face-recognition/facerecognition/src/main/AndroidManifest.xml:34:5-83
	android:name
		ADDED from /Tawatchai/Android/AndroidStudioWorkSpace/FaceReconition/face-recognition/facerecognition/src/main/AndroidManifest.xml:34:30-80
android:uses-permission#android.permission.READ_EXTERNAL_STORAGE
ADDED from /Tawatchai/Android/AndroidStudioWorkSpace/FaceReconition/face-recognition/facerecognition/src/main/AndroidManifest.xml:35:5-88
	android:name
		ADDED from /Tawatchai/Android/AndroidStudioWorkSpace/FaceReconition/face-recognition/facerecognition/src/main/AndroidManifest.xml:35:30-85
application
ADDED from /Tawatchai/Android/AndroidStudioWorkSpace/FaceReconition/face-recognition/facerecognition/src/main/AndroidManifest.xml:38:5-104:19
MERGED from [com.android.support:design:23.2.1] /Users/tawatchaitongtea/.android/build-cache/6e0f1c55b093b535bc570358c76222bffb3373e3/output/AndroidManifest.xml:22:5-20
MERGED from [com.android.support:appcompat-v7:23.2.1] /Users/tawatchaitongtea/.android/build-cache/4888bd56c8a3f1c9bdf1725dd21f3562ec366a82/output/AndroidManifest.xml:25:5-20
MERGED from [com.android.support:animated-vector-drawable:23.2.1] /Users/tawatchaitongtea/.android/build-cache/ce4cef1c9ef3c4844a57c066be1da357f62f12cd/output/AndroidManifest.xml:7:5-20
MERGED from [com.android.support:support-vector-drawable:23.2.1] /Users/tawatchaitongtea/.android/build-cache/3b3a24eb874ed9e4c89fdcc7599d572ae66c0360/output/AndroidManifest.xml:7:5-20
MERGED from [com.android.support:cardview-v7:23.2.1] /Users/tawatchaitongtea/.android/build-cache/4de21783ab4d6f2973bf824d1ec92a8de0a718f1/output/AndroidManifest.xml:22:5-20
MERGED from [com.android.support:support-v4:23.2.1] /Users/tawatchaitongtea/.android/build-cache/6bd5f920ebbc42690dc100069a7f947150f437ea/output/AndroidManifest.xml:22:5-20
	android:label
		ADDED from /Tawatchai/Android/AndroidStudioWorkSpace/FaceReconition/face-recognition/facerecognition/src/main/AndroidManifest.xml:40:9-41
	android:icon
		ADDED from /Tawatchai/Android/AndroidStudioWorkSpace/FaceReconition/face-recognition/facerecognition/src/main/AndroidManifest.xml:39:9-43
	android:theme
		ADDED from /Tawatchai/Android/AndroidStudioWorkSpace/FaceReconition/face-recognition/facerecognition/src/main/AndroidManifest.xml:41:9-47
activity#org.opencv.javacv.facerecognition.FdActivity
ADDED from /Tawatchai/Android/AndroidStudioWorkSpace/FaceReconition/face-recognition/facerecognition/src/main/AndroidManifest.xml:42:9-54:20
	android:screenOrientation
		ADDED from /Tawatchai/Android/AndroidStudioWorkSpace/FaceReconition/face-recognition/facerecognition/src/main/AndroidManifest.xml:46:13-50
	android:label
		ADDED from /Tawatchai/Android/AndroidStudioWorkSpace/FaceReconition/face-recognition/facerecognition/src/main/AndroidManifest.xml:45:13-45
	android:configChanges
		ADDED from /Tawatchai/Android/AndroidStudioWorkSpace/FaceReconition/face-recognition/facerecognition/src/main/AndroidManifest.xml:44:13-63
	android:name
		ADDED from /Tawatchai/Android/AndroidStudioWorkSpace/FaceReconition/face-recognition/facerecognition/src/main/AndroidManifest.xml:43:13-39
activity#org.opencv.javacv.facerecognition.ImageGallery
ADDED from /Tawatchai/Android/AndroidStudioWorkSpace/FaceReconition/face-recognition/facerecognition/src/main/AndroidManifest.xml:55:9-65:20
	android:screenOrientation
		ADDED from /Tawatchai/Android/AndroidStudioWorkSpace/FaceReconition/face-recognition/facerecognition/src/main/AndroidManifest.xml:59:13-50
	android:label
		ADDED from /Tawatchai/Android/AndroidStudioWorkSpace/FaceReconition/face-recognition/facerecognition/src/main/AndroidManifest.xml:58:13-45
	android:configChanges
		ADDED from /Tawatchai/Android/AndroidStudioWorkSpace/FaceReconition/face-recognition/facerecognition/src/main/AndroidManifest.xml:57:13-63
	android:name
		ADDED from /Tawatchai/Android/AndroidStudioWorkSpace/FaceReconition/face-recognition/facerecognition/src/main/AndroidManifest.xml:56:13-41
intent-filter#android.intent.action.VIEW+android.intent.category.DEFAULT
ADDED from /Tawatchai/Android/AndroidStudioWorkSpace/FaceReconition/face-recognition/facerecognition/src/main/AndroidManifest.xml:60:13-64:29
action#android.intent.action.VIEW
ADDED from /Tawatchai/Android/AndroidStudioWorkSpace/FaceReconition/face-recognition/facerecognition/src/main/AndroidManifest.xml:61:17-69
	android:name
		ADDED from /Tawatchai/Android/AndroidStudioWorkSpace/FaceReconition/face-recognition/facerecognition/src/main/AndroidManifest.xml:61:25-66
category#android.intent.category.DEFAULT
ADDED from /Tawatchai/Android/AndroidStudioWorkSpace/FaceReconition/face-recognition/facerecognition/src/main/AndroidManifest.xml:63:17-76
	android:name
		ADDED from /Tawatchai/Android/AndroidStudioWorkSpace/FaceReconition/face-recognition/facerecognition/src/main/AndroidManifest.xml:63:27-73
activity#org.opencv.javacv.facerecognition.AddAccountActivity
ADDED from /Tawatchai/Android/AndroidStudioWorkSpace/FaceReconition/face-recognition/facerecognition/src/main/AndroidManifest.xml:66:9-68:52
	android:screenOrientation
		ADDED from /Tawatchai/Android/AndroidStudioWorkSpace/FaceReconition/face-recognition/facerecognition/src/main/AndroidManifest.xml:68:13-49
	android:name
		ADDED from /Tawatchai/Android/AndroidStudioWorkSpace/FaceReconition/face-recognition/facerecognition/src/main/AndroidManifest.xml:67:13-47
activity#org.opencv.javacv.facerecognition.FaceRecognitionActivity
ADDED from /Tawatchai/Android/AndroidStudioWorkSpace/FaceReconition/face-recognition/facerecognition/src/main/AndroidManifest.xml:69:9-71:53
	android:screenOrientation
		ADDED from /Tawatchai/Android/AndroidStudioWorkSpace/FaceReconition/face-recognition/facerecognition/src/main/AndroidManifest.xml:71:13-50
	android:name
		ADDED from /Tawatchai/Android/AndroidStudioWorkSpace/FaceReconition/face-recognition/facerecognition/src/main/AndroidManifest.xml:70:13-52
meta-data#DATABASE
ADDED from /Tawatchai/Android/AndroidStudioWorkSpace/FaceReconition/face-recognition/facerecognition/src/main/AndroidManifest.xml:73:9-75:39
	android:value
		ADDED from /Tawatchai/Android/AndroidStudioWorkSpace/FaceReconition/face-recognition/facerecognition/src/main/AndroidManifest.xml:75:13-36
	android:name
		ADDED from /Tawatchai/Android/AndroidStudioWorkSpace/FaceReconition/face-recognition/facerecognition/src/main/AndroidManifest.xml:74:13-36
meta-data#VERSION
ADDED from /Tawatchai/Android/AndroidStudioWorkSpace/FaceReconition/face-recognition/facerecognition/src/main/AndroidManifest.xml:76:9-78:33
	android:value
		ADDED from /Tawatchai/Android/AndroidStudioWorkSpace/FaceReconition/face-recognition/facerecognition/src/main/AndroidManifest.xml:78:13-30
	android:name
		ADDED from /Tawatchai/Android/AndroidStudioWorkSpace/FaceReconition/face-recognition/facerecognition/src/main/AndroidManifest.xml:77:13-35
meta-data#QUERY_LOG
ADDED from /Tawatchai/Android/AndroidStudioWorkSpace/FaceReconition/face-recognition/facerecognition/src/main/AndroidManifest.xml:79:9-81:36
	android:value
		ADDED from /Tawatchai/Android/AndroidStudioWorkSpace/FaceReconition/face-recognition/facerecognition/src/main/AndroidManifest.xml:81:13-33
	android:name
		ADDED from /Tawatchai/Android/AndroidStudioWorkSpace/FaceReconition/face-recognition/facerecognition/src/main/AndroidManifest.xml:80:13-37
meta-data#DOMAIN_PACKAGE_NAME
ADDED from /Tawatchai/Android/AndroidStudioWorkSpace/FaceReconition/face-recognition/facerecognition/src/main/AndroidManifest.xml:82:9-84:65
	android:value
		ADDED from /Tawatchai/Android/AndroidStudioWorkSpace/FaceReconition/face-recognition/facerecognition/src/main/AndroidManifest.xml:84:13-62
	android:name
		ADDED from /Tawatchai/Android/AndroidStudioWorkSpace/FaceReconition/face-recognition/facerecognition/src/main/AndroidManifest.xml:83:13-47
activity#org.opencv.javacv.facerecognition.LoginActivity
ADDED from /Tawatchai/Android/AndroidStudioWorkSpace/FaceReconition/face-recognition/facerecognition/src/main/AndroidManifest.xml:86:9-90:20
	android:screenOrientation
		ADDED from /Tawatchai/Android/AndroidStudioWorkSpace/FaceReconition/face-recognition/facerecognition/src/main/AndroidManifest.xml:88:13-49
	android:name
		ADDED from /Tawatchai/Android/AndroidStudioWorkSpace/FaceReconition/face-recognition/facerecognition/src/main/AndroidManifest.xml:87:13-42
activity#org.opencv.javacv.facerecognition.FaceScanActivity
ADDED from /Tawatchai/Android/AndroidStudioWorkSpace/FaceReconition/face-recognition/facerecognition/src/main/AndroidManifest.xml:91:9-93:53
	android:screenOrientation
		ADDED from /Tawatchai/Android/AndroidStudioWorkSpace/FaceReconition/face-recognition/facerecognition/src/main/AndroidManifest.xml:93:13-50
	android:name
		ADDED from /Tawatchai/Android/AndroidStudioWorkSpace/FaceReconition/face-recognition/facerecognition/src/main/AndroidManifest.xml:92:13-45
activity#org.opencv.javacv.facerecognition.AccountListActivity
ADDED from /Tawatchai/Android/AndroidStudioWorkSpace/FaceReconition/face-recognition/facerecognition/src/main/AndroidManifest.xml:94:9-96:52
	android:screenOrientation
		ADDED from /Tawatchai/Android/AndroidStudioWorkSpace/FaceReconition/face-recognition/facerecognition/src/main/AndroidManifest.xml:96:13-49
	android:name
		ADDED from /Tawatchai/Android/AndroidStudioWorkSpace/FaceReconition/face-recognition/facerecognition/src/main/AndroidManifest.xml:95:13-48
activity#org.opencv.javacv.facerecognition.SplashActivity
ADDED from /Tawatchai/Android/AndroidStudioWorkSpace/FaceReconition/face-recognition/facerecognition/src/main/AndroidManifest.xml:97:9-103:20
	android:name
		ADDED from /Tawatchai/Android/AndroidStudioWorkSpace/FaceReconition/face-recognition/facerecognition/src/main/AndroidManifest.xml:97:19-49
intent-filter#android.intent.action.MAIN+android.intent.category.LAUNCHER
ADDED from /Tawatchai/Android/AndroidStudioWorkSpace/FaceReconition/face-recognition/facerecognition/src/main/AndroidManifest.xml:98:13-102:29
action#android.intent.action.MAIN
ADDED from /Tawatchai/Android/AndroidStudioWorkSpace/FaceReconition/face-recognition/facerecognition/src/main/AndroidManifest.xml:99:17-69
	android:name
		ADDED from /Tawatchai/Android/AndroidStudioWorkSpace/FaceReconition/face-recognition/facerecognition/src/main/AndroidManifest.xml:99:25-66
category#android.intent.category.LAUNCHER
ADDED from /Tawatchai/Android/AndroidStudioWorkSpace/FaceReconition/face-recognition/facerecognition/src/main/AndroidManifest.xml:101:17-77
	android:name
		ADDED from /Tawatchai/Android/AndroidStudioWorkSpace/FaceReconition/face-recognition/facerecognition/src/main/AndroidManifest.xml:101:27-74
